Time Series Coercion Using timekit
…
Data

We’ll use the ten-year treasury rate available from the FRED database with the code, “DGS10”. We’ll retrieve the data set using tq_get(get = "economic.data"). The return structure is a tibble (or “tidy” data frame), which is not conducive to many of the popular time series analysis packages including quantmod, TTR, forecast and many others.

ten_year_treasury_rate_tbl <- tq_get("DGS10", 
                                     get  = "economic.data", 
                                     from = "1997-01-01", 
                                     to   = "2016-12-31") %>%
    rename(pct = price) %>%
    mutate(pct = pct / 100)
ten_year_treasury_rate_tbl

## # A tibble: 5,218 × 2
##          date    pct
##        <date>  <dbl>
## 1  1997-01-01     NA
## 2  1997-01-02 0.0654
## 3  1997-01-03 0.0652
## 4  1997-01-06 0.0654
## 5  1997-01-07 0.0657
## 6  1997-01-08 0.0660
## 7  1997-01-09 0.0652
## 8  1997-01-10 0.0663
## 9  1997-01-13 0.0663
## 10 1997-01-14 0.0653
## # ... with 5,208 more rows

For purposes of the Case Study, we’ll change to a quarterly periodicity using tq_transmute() from the tidyquant package. Note that NA values are automatically removed from the data (message not shown).

ten_year_treasury_rate_tbl <- ten_year_treasury_rate_tbl %>%
    tq_transmute(pct, mutate_fun = to.period, period = "quarters")
ten_year_treasury_rate_tbl

## # A tibble: 80 × 2
##          date    pct
##        <date>  <dbl>
## 1  1997-03-31 0.0692
## 2  1997-06-30 0.0651
## 3  1997-09-30 0.0612
## 4  1997-12-31 0.0575
## 5  1998-03-31 0.0567
## 6  1998-06-30 0.0544
## 7  1998-09-30 0.0444
## 8  1998-12-31 0.0465
## 9  1999-03-31 0.0525
## 10 1999-06-30 0.0581
## # ... with 70 more rows
…
## [1] "1997-03-31" "1997-06-30" "1997-09-30" "1997-12-31" "1998-03-31"
## [6] "1998-06-30"

class(timekit_index)

## [1] "Date"

Next, the tk_tbl() function has an argument timekit_idx also which can be used to select which index to return. First, we show coercion using the default index. Notice that the index returned is “regularized” meaning its actually a numeric index rather than a time-based index.

# Coercion back to tibble using the default index (regularized)
ten_year_treasury_rate_ts_timekit %>%
    tk_tbl(index_rename = "date", timekit_idx = FALSE)

## # A tibble: 80 × 2
##            index    pct
##    <S3: yearqtr>  <dbl>
## 1        1997 Q1 0.0692
## 2        1997 Q2 0.0651
## 3        1997 Q3 0.0612
## 4        1997 Q4 0.0575
## 5        1998 Q1 0.0567
## 6        1998 Q2 0.0544
## 7        1998 Q3 0.0444
## 8        1998 Q4 0.0465
## 9        1999 Q1 0.0525
## 10       1999 Q2 0.0581
## # ... with 70 more rows

We can now get the original date index using the tk_tbl() argument timekit_idx = TRUE.

# Coercion back to tibble now using the timekit index (date / date-time)
ten_year_treasury_rate_tbl_timekit <- ten_year_treasury_rate_ts_timekit %>%
    tk_tbl(index_rename = "date", timekit_idx = TRUE)
ten_year_treasury_rate_tbl_timekit

## # A tibble: 80 × 2
##         index    pct
##        <date>  <dbl>
## 1  1997-03-31 0.0692
## 2  1997-06-30 0.0651
## 3  1997-09-30 0.0612
## 4  1997-12-31 0.0575
## 5  1998-03-31 0.0567
## 6  1998-06-30 0.0544
## 7  1998-09-30 0.0444
## 8  1998-12-31 0.0465
## 9  1999-03-31 0.0525
## 10 1999-06-30 0.0581
## # ... with 70 more rows
…
## [1] FALSE

Coercion Methods

Using the ten_year_treasury_rate_tbl, we’ll go through the various coercion methods using tk_tbl, tk_xts, tk_zoo, tk_zooreg, and tk_ts.

From tbl

The starting point is the ten_year_treasury_rate_tbl. We will coerce this into xts, zoo, zooreg and ts classes.

# Start:
ten_year_treasury_rate_tbl

## # A tibble: 80 × 2
##          date    pct
##        <date>  <dbl>
## 1  1997-03-31 0.0692
## 2  1997-06-30 0.0651
## 3  1997-09-30 0.0612
## 4  1997-12-31 0.0575
## 5  1998-03-31 0.0567
## 6  1998-06-30 0.0544
## 7  1998-09-30 0.0444
## 8  1998-12-31 0.0465
## 9  1999-03-31 0.0525
## 10 1999-06-30 0.0581
## # ... with 70 more rows
…
##               pct
## 1997-03-31 0.0692
## 1997-06-30 0.0651
## 1997-09-30 0.0612
## 1997-12-31 0.0575
## 1998-03-31 0.0567
## 1998-06-30 0.0544

Notice no loss of data going back to tbl.

# End
tk_tbl(ten_year_treasury_rate_xts)

## # A tibble: 80 × 2
##         index    pct
##        <date>  <dbl>
## 1  1997-03-31 0.0692
## 2  1997-06-30 0.0651
## 3  1997-09-30 0.0612
## 4  1997-12-31 0.0575
## 5  1998-03-31 0.0567
## 6  1998-06-30 0.0544
## 7  1998-09-30 0.0444
## 8  1998-12-31 0.0465
## 9  1999-03-31 0.0525
## 10 1999-06-30 0.0581
## # ... with 70 more rows
…
##               pct
## 1997-03-31 0.0692
## 1997-06-30 0.0651
## 1997-09-30 0.0612
## 1997-12-31 0.0575
## 1998-03-31 0.0567
## 1998-06-30 0.0544

Notice no loss of data going back to tbl.

# End
tk_tbl(ten_year_treasury_rate_zoo)

## # A tibble: 80 × 2
##         index    pct
##        <date>  <dbl>
## 1  1997-03-31 0.0692
## 2  1997-06-30 0.0651
## 3  1997-09-30 0.0612
## 4  1997-12-31 0.0575
## 5  1998-03-31 0.0567
## 6  1998-06-30 0.0544
## 7  1998-09-30 0.0444
## 8  1998-12-31 0.0465
## 9  1999-03-31 0.0525
## 10 1999-06-30 0.0581
## # ... with 70 more rows
…
##            pct
## 1997 Q1 0.0692
## 1997 Q2 0.0651
## 1997 Q3 0.0612
## 1997 Q4 0.0575
## 1998 Q1 0.0567
## 1998 Q2 0.0544

Notice that the index is a regularized numeric sequence by default.

# End - with default regularized index
tk_tbl(ten_year_treasury_rate_zooreg)

## # A tibble: 80 × 2
##            index    pct
##    <S3: yearqtr>  <dbl>
## 1        1997 Q1 0.0692
## 2        1997 Q2 0.0651
## 3        1997 Q3 0.0612
## 4        1997 Q4 0.0575
## 5        1998 Q1 0.0567
## 6        1998 Q2 0.0544
## 7        1998 Q3 0.0444
## 8        1998 Q4 0.0465
## 9        1999 Q1 0.0525
## 10       1999 Q2 0.0581
## # ... with 70 more rows

With timekit_idx = TRUE the index is the original date sequence. The result is the original tbl that we started with!

# End - with timekit index that is the same as original time-based index
tk_tbl(ten_year_treasury_rate_zooreg, timekit_idx = TRUE)

## # A tibble: 80 × 2
##         index    pct
##        <date>  <dbl>
## 1  1997-03-31 0.0692
## 2  1997-06-30 0.0651
## 3  1997-09-30 0.0612
## 4  1997-12-31 0.0575
## 5  1998-03-31 0.0567
## 6  1998-06-30 0.0544
## 7  1998-09-30 0.0444
## 8  1998-12-31 0.0465
## 9  1999-03-31 0.0525
## 10 1999-06-30 0.0581
## # ... with 70 more rows
…
Notice that the index is a regularized numeric sequence by default.

# End - with default regularized index
tk_tbl(ten_year_treasury_rate_ts)

## # A tibble: 80 × 2
##            index    pct
##    <S3: yearqtr>  <dbl>
## 1        1997 Q1 0.0692
## 2        1997 Q2 0.0651
## 3        1997 Q3 0.0612
## 4        1997 Q4 0.0575
## 5        1998 Q1 0.0567
## 6        1998 Q2 0.0544
## 7        1998 Q3 0.0444
## 8        1998 Q4 0.0465
## 9        1999 Q1 0.0525
## 10       1999 Q2 0.0581
## # ... with 70 more rows

With timekit_idx = TRUE the index is the original date sequence. The result is the original tbl that we started with!

# End - with timekit index 
tk_tbl(ten_year_treasury_rate_ts, timekit_idx = TRUE)

## # A tibble: 80 × 2
##         index    pct
##        <date>  <dbl>
## 1  1997-03-31 0.0692
## 2  1997-06-30 0.0651
## 3  1997-09-30 0.0612
## 4  1997-12-31 0.0575
## 5  1998-03-31 0.0567
## 6  1998-06-30 0.0544
## 7  1998-09-30 0.0444
## 8  1998-12-31 0.0465
## 9  1999-03-31 0.0525
## 10 1999-06-30 0.0581
## # ... with 70 more rows
…
If we try to toggle timekit_idx = TRUE during coercion to tbl using tk_tbl(), we get a warning and the default regularized time series is returned.

tk_tbl(ten_year_treasury_rate_ts_stats, timekit_idx = TRUE)

## Warning in tk_tbl.zooreg(zoo::as.zoo(data), preserve_index, rename_index, :
## No `timekit index` attribute found. Using regularized index.

## # A tibble: 80 × 2
##            index    pct
##    <S3: yearqtr>  <dbl>
## 1        1997 Q1 0.0692
## 2        1997 Q2 0.0651
## 3        1997 Q3 0.0612
## 4        1997 Q4 0.0575
## 5        1998 Q1 0.0567
## 6        1998 Q2 0.0544
## 7        1998 Q3 0.0444
## 8        1998 Q4 0.0465
## 9        1999 Q1 0.0525
## 10       1999 Q2 0.0581
## # ... with 70 more rows
…
If we toggle timekit_idx = TRUE during coercion to tbl using tk_tbl(), we get the index of dates rather than the regularized index in the returned tbl.

tk_tbl(ten_year_treasury_rate_ts_timekit, timekit_idx = TRUE)

## # A tibble: 80 × 2
##         index    pct
##        <date>  <dbl>
## 1  1997-03-31 0.0692
## 2  1997-06-30 0.0651
## 3  1997-09-30 0.0612
## 4  1997-12-31 0.0575
## 5  1998-03-31 0.0567
## 6  1998-06-30 0.0544
## 7  1998-09-30 0.0444
## 8  1998-12-31 0.0465
## 9  1999-03-31 0.0525
## 10 1999-06-30 0.0581
## # ... with 70 more rows
…
Working with yearmon and yearqtr index

The zoo package has the yearmon and yearqtr classes for working with regularized monthly and quarterly data, respectively. The “timekit index” tracks the format during coercion. Here’s and example with yearqtr.

yearqtr_tbl <- ten_year_treasury_rate_tbl %>%
    mutate(date = as.yearqtr(date))
yearqtr_tbl

## # A tibble: 80 × 2
##             date    pct
##    <S3: yearqtr>  <dbl>
## 1        1997 Q1 0.0692
## 2        1997 Q2 0.0651
## 3        1997 Q3 0.0612
## 4        1997 Q4 0.0575
## 5        1998 Q1 0.0567
## 6        1998 Q2 0.0544
## 7        1998 Q3 0.0444
## 8        1998 Q4 0.0465
## 9        1999 Q1 0.0525
## 10       1999 Q2 0.0581
## # ... with 70 more rows
…
yearqtr_ts <- tk_ts(yearqtr_xts, start = 1997, freq = 4)
yearqtr_ts %>%
    head()

##        Qtr1   Qtr2   Qtr3   Qtr4
## 1997 0.0692 0.0651 0.0612 0.0575
## 1998 0.0567 0.0544

Coercing from ts to tbl using timekit_idx = TRUE shows that the original index was maintained through each of the coercion steps.

yearqtr_ts %>%
    tk_tbl(timekit_idx = TRUE)

## # A tibble: 80 × 2
##            index    pct
##    <S3: yearqtr>  <dbl>
## 1        1997 Q1 0.0692
## 2        1997 Q2 0.0651
## 3        1997 Q3 0.0612
## 4        1997 Q4 0.0575
## 5        1998 Q1 0.0567
## 6        1998 Q2 0.0544
## 7        1998 Q3 0.0444
## 8        1998 Q4 0.0465
## 9        1999 Q1 0.0525
## 10       1999 Q2 0.0581
## # ... with 70 more rows
…
