Forecasting Using a Time Series Signature with timekit
…
# Split into training and test sets
train <- bikes %>%
    filter(date < ymd("2012-07-01"))

test <- bikes %>%
    filter(date >= ymd("2012-07-01"))

Modeling

Start with the training set, which has the “date” and “cnt” columns.

# Training set
train

## # A tibble: 547 x 2
##          date   cnt
##        <date> <int>
##  1 2011-01-01   985
##  2 2011-01-02   801
##  3 2011-01-03  1349
##  4 2011-01-04  1562
##  5 2011-01-05  1600
##  6 2011-01-06  1606
##  7 2011-01-07  1510
##  8 2011-01-08   959
##  9 2011-01-09   822
## 10 2011-01-10  1321
## # ... with 537 more rows

The first step is to add the time series signature to the training set, which will be used this to learn the patterns. The most efficient method is using tk_augment_timeseries_signature(), which adds the columns we need as additional columns.

# Add time series signature
train_augmented <- train %>%
    tk_augment_timeseries_signature()
train_augmented

## # A tibble: 547 x 30
##          date   cnt  index.num  diff  year year.iso  half quarter month
##        <date> <int>      <int> <int> <int>    <int> <int>   <int> <int>
##  1 2011-01-01   985 1293840000    NA  2011     2010     1       1     1
##  2 2011-01-02   801 1293926400 86400  2011     2010     1       1     1
##  3 2011-01-03  1349 1294012800 86400  2011     2011     1       1     1
##  4 2011-01-04  1562 1294099200 86400  2011     2011     1       1     1
##  5 2011-01-05  1600 1294185600 86400  2011     2011     1       1     1
##  6 2011-01-06  1606 1294272000 86400  2011     2011     1       1     1
##  7 2011-01-07  1510 1294358400 86400  2011     2011     1       1     1
##  8 2011-01-08   959 1294444800 86400  2011     2011     1       1     1
##  9 2011-01-09   822 1294531200 86400  2011     2011     1       1     1
## 10 2011-01-10  1321 1294617600 86400  2011     2011     1       1     1
## # ... with 537 more rows, and 21 more variables: month.xts <int>,
## #   month.lbl <ord>, day <int>, hour <int>, minute <int>, second <int>,
## #   hour12 <int>, am.pm <int>, wday <int>, wday.xts <int>, wday.lbl <ord>,
## #   mday <int>, qday <int>, yday <int>, mweek <int>, week <int>,
## #   week.iso <int>, week2 <int>, week3 <int>, week4 <int>, mday7 <int>
…
We can also get a quick idea of the overall error of the model on the training set. Note that what we really care about is the error on the test set, as this is a much better predictor of future model performance.

# RMSE
sqrt(mean(fit_lm$residuals^2))

## [1] 860.2119

Test Validation

With a suitable model (low residual error and random residuals) we can forecast using the “test” set for validation purposes.

test

## # A tibble: 184 x 2
##          date   cnt
##        <date> <int>
##  1 2012-07-01  5531
##  2 2012-07-02  6227
##  3 2012-07-03  6660
##  4 2012-07-04  7403
##  5 2012-07-05  6241
##  6 2012-07-06  6207
##  7 2012-07-07  4840
##  8 2012-07-08  4672
##  9 2012-07-09  6569
## 10 2012-07-10  6290
## # ... with 174 more rows

We need to again augment the time series signature to the test set.

test_augmented <- test %>%
    tk_augment_timeseries_signature()
test_augmented

## # A tibble: 184 x 30
##          date   cnt  index.num  diff  year year.iso  half quarter month
##        <date> <int>      <int> <int> <int>    <int> <int>   <int> <int>
##  1 2012-07-01  5531 1341100800    NA  2012     2012     2       3     7
##  2 2012-07-02  6227 1341187200 86400  2012     2012     2       3     7
##  3 2012-07-03  6660 1341273600 86400  2012     2012     2       3     7
##  4 2012-07-04  7403 1341360000 86400  2012     2012     2       3     7
##  5 2012-07-05  6241 1341446400 86400  2012     2012     2       3     7
##  6 2012-07-06  6207 1341532800 86400  2012     2012     2       3     7
##  7 2012-07-07  4840 1341619200 86400  2012     2012     2       3     7
##  8 2012-07-08  4672 1341705600 86400  2012     2012     2       3     7
##  9 2012-07-09  6569 1341792000 86400  2012     2012     2       3     7
## 10 2012-07-10  6290 1341878400 86400  2012     2012     2       3     7
## # ... with 174 more rows, and 21 more variables: month.xts <int>,
## #   month.lbl <ord>, day <int>, hour <int>, minute <int>, second <int>,
## #   hour12 <int>, am.pm <int>, wday <int>, wday.xts <int>, wday.lbl <ord>,
## #   mday <int>, qday <int>, yday <int>, mweek <int>, week <int>,
## #   week.iso <int>, week2 <int>, week3 <int>, week4 <int>, mday7 <int>

Next, use predict() to apply the model to the test set.

yhat_test <- predict(fit_lm, newdata = test_augmented)

Add the predictions (use add_column for numeric vectors) to the test set for comparison. Additionally, we can add the residuals using mutate(), which enables performing calculations between columns of a data frame.

pred_test <- test %>%
    add_column(yhat = yhat_test) %>%
    mutate(.resid = cnt - yhat)
pred_test

## # A tibble: 184 x 4
##          date   cnt     yhat      .resid
##        <date> <int>    <dbl>       <dbl>
##  1 2012-07-01  5531 6264.223  -733.22284
##  2 2012-07-02  6227 6638.720  -411.72045
##  3 2012-07-03  6660 6846.848  -186.84846
##  4 2012-07-04  7403 6688.552   714.44821
##  5 2012-07-05  6241 6915.828  -674.82813
##  6 2012-07-06  6207 6937.066  -730.06598
##  7 2012-07-07  4840 6953.464 -2113.46428
##  8 2012-07-08  4672 6623.205 -1951.20517
##  9 2012-07-09  6569 6621.562   -52.56221
## 10 2012-07-10  6290 6829.690  -539.69023
## # ... with 174 more rows
…
